PatternsAndSalience
…
Univariate

# Create aggregated data
all_depts <- dengue %>%
  count(departamento, name = "count") %>%
  arrange(desc(count))

all_depts

## # A tibble: 22 × 2
##    departamento   count
##    <chr>          <int>
##  1 PIURA         126400
##  2 LORETO         92496
##  3 UCAYALI        43707
##  4 MADRE DE DIOS  30562
##  5 TUMBES         27313
##  6 SAN MARTIN     26759
##  7 LA LIBERTAD    24377
##  8 ICA            21324
##  9 CAJAMARCA      19409
## 10 JUNIN          19199
## # ℹ 12 more rows
…
Bivariate

# Age distribution by ALL departments
age_dept <- dengue %>%
  count(departamento, edad_grupos, name = "count")

age_dept

## # A tibble: 62 × 3
##    departamento edad_grupos   count
##    <chr>        <chr>         <int>
##  1 AMAZONAS     a_menor_a_16   3379
##  2 AMAZONAS     b_entre_16y50  7298
##  3 AMAZONAS     c_mayor_a_50   1340
##  4 ANCASH       a_menor_a_16   1557
##  5 ANCASH       b_entre_16y50  4483
##  6 ANCASH       c_mayor_a_50   1174
##  7 AREQUIPA     b_entre_16y50     7
##  8 AYACUCHO     a_menor_a_16   1934
##  9 AYACUCHO     b_entre_16y50  5672
## 10 AYACUCHO     c_mayor_a_50   1283
## # ℹ 52 more rows
…
# --- Step 6: count how many years each provincia was its departamento's
# "worst" (highest ALARMA share) province, keep only provinces affected
# more than 2 years ---
worst_ProvYear_alarma_Frequency <- worst_ProvYear_alarma %>%
  count(departamento, provincia, name = "yearsAffected") %>%
  filter(yearsAffected > 2)

worst_ProvYear_alarma_Frequency

## # A tibble: 27 × 3
##    departamento provincia     yearsAffected
##    <chr>        <chr>                 <int>
##  1 AMAZONAS     BAGUA                     3
##  2 AMAZONAS     CHACHAPOYAS               3
##  3 AMAZONAS     UTCUBAMBA                 5
##  4 ANCASH       CASMA                     3
##  5 ANCASH       SANTA                     4
##  6 CAJAMARCA    JAEN                      6
##  7 CUSCO        LA CONVENCION             8
##  8 HUANUCO      HUANUCO                   4
##  9 HUANUCO      PUERTO INCA               4
## 10 JUNIN        SATIPO                   11
## # ℹ 17 more rows
…
# ggplot2 has no direct "sort=" encoding like Altair -- discrete axis order
# is controlled by turning the column into a factor with the desired level
# order.
ByYearDepaAlarm_focus <- ByYearDepaAlarm_focus %>%
  mutate(departamento = factor(departamento, levels = high_alarm_order))

ByYearDepaAlarm_focus

## # A tibble: 203 × 4
##      ano departamento  alarmShare alarmLevels
##    <dbl> <fct>              <dbl> <fct>      
##  1  2002 LORETO          0.0004   a.below10% 
##  2  2010 JUNIN           0.0214   a.below10% 
##  3  2010 LORETO          0.0643   a.below10% 
##  4  2010 MADRE DE DIOS   0.00407  a.below10% 
##  5  2010 PIURA           0.00334  a.below10% 
##  6  2010 SAN MARTIN      0.0163   a.below10% 
##  7  2010 TUMBES          0.000850 a.below10% 
##  8  2011 AMAZONAS        0.00984  a.below10% 
##  9  2011 CAJAMARCA       0.0392   a.below10% 
## 10  2011 HUANUCO         0.279    c.26-50%   
## # ℹ 193 more rows
…
